{
    "_copy_without_render": [
        "test/lib"
    ],
    "_extensions": [
        "jinja2_time.TimeExtension"
    ],
    "_template": "bash",
    "author_email": "pm@nellump.net",
    "author_name": "Paul Mullen",
    "copyright_contact": "pm@nellump.net",
    "copyright_owner": "Paul Mullen",
    "copyright_years": "2022",
    "initial_version": "0.1.0",
    "license_spdx_id": "MIT",
    "project_description": "Automatic command line option injection",
    "project_name": "Opty",
    "project_slug": "opty",
    "project_snail": "Opty",
    "project_tech": "bash",
    "project_uri": "https://gitlab.com/p3m2k/opty"
}
